%YAML 1.1
%TAG !u! tag:unity3d.com,2011:
--- !u!114 &11400000
MonoBehaviour:
  m_ObjectHideFlags: 0
  m_CorrespondingSourceObject: {fileID: 0}
  m_PrefabInstance: {fileID: 0}
  m_PrefabAsset: {fileID: 0}
  m_GameObject: {fileID: 0}
  m_Enabled: 1
  m_EditorHideFlags: 0
  m_Script: {fileID: 11500000, guid: 95e66c6366d904e98bc83428217d4fd7, type: 3}
  m_Name: PointAndShoot
  m_EditorClassIdentifier: 
  _data:
    _json: '{"graph":{"variables":{"Kind":"Flow","collection":{"$content":[],"$version":"A"},"$version":"A"},"controlInputDefinitions":[],"controlOutputDefinitions":[],"valueInputDefinitions":[],"valueOutputDefinitions":[],"title":null,"summary":null,"pan":{"x":-1152.958,"y":-239.2254},"zoom":0.8,"elements":[{"coroutine":false,"defaultValues":{},"position":{"x":-1260.0,"y":-318.0},"guid":"b74f4460-8894-4fb3-bbb7-17377f990af4","$version":"A","$type":"Unity.VisualScripting.Update","$id":"9"},{"specifyFallback":false,"kind":"Object","defaultValues":{"name":{"$content":"DetectedGameObject","$type":"System.String"},"object":null},"position":{"x":-978.0,"y":-749.0},"guid":"d07332f3-b708-4189-88ae-ffddecef1b60","$version":"A","$type":"Unity.VisualScripting.GetVariable","$id":"11"},{"chainable":false,"member":{"name":"LookRotation","parameterTypes":["UnityEngine.Vector3"],"targetType":"UnityEngine.Quaternion","targetTypeName":"UnityEngine.Quaternion","$version":"A"},"defaultValues":{"%forward":{"x":0.0,"y":0.0,"z":0.0,"$type":"UnityEngine.Vector3"}},"position":{"x":-12.0,"y":-734.0},"guid":"2779e166-9289-4bc0-adc0-6f15f2f6cbb8","$version":"A","$type":"Unity.VisualScripting.InvokeMember","$id":"13"},{"defaultValues":{"minuend":{"x":0.0,"y":0.0,"z":0.0,"$type":"UnityEngine.Vector3"},"subtrahend":{"x":0.0,"y":0.0,"z":0.0,"$type":"UnityEngine.Vector3"}},"position":{"x":-506.0,"y":-725.0},"guid":"1b22f98f-73e0-451c-a178-51e62c733263","$version":"A","$type":"Unity.VisualScripting.Vector3Subtract","$id":"16"},{"member":{"name":"position","parameterTypes":null,"targetType":"UnityEngine.Transform","targetTypeName":"UnityEngine.Transform","$version":"A"},"defaultValues":{"target":null},"position":{"x":-714.0,"y":-637.0},"guid":"51e3f88f-c7c9-460c-886d-6d920b685162","$version":"A","$type":"Unity.VisualScripting.GetMember","$id":"18"},{"specifyFallback":false,"kind":"Object","defaultValues":{"name":{"$content":"LaunchAngle","$type":"System.String"},"object":null},"position":{"x":-498.0,"y":-549.0},"guid":"94fa4390-56c3-4f68-85ca-07c51022ce57","$version":"A","$type":"Unity.VisualScripting.GetVariable","$id":"21"},{"member":{"name":"position","parameterTypes":null,"targetType":"UnityEngine.Transform","targetTypeName":"UnityEngine.Transform","$version":"A"},"defaultValues":{"target":null},"position":{"x":851.0,"y":-204.0},"guid":"a93816f7-810f-4861-8191-a95070ba7871","$version":"A","$type":"Unity.VisualScripting.GetMember","$id":"23"},{"chainable":false,"member":{"name":"Distance","parameterTypes":["UnityEngine.Vector3","UnityEngine.Vector3"],"targetType":"UnityEngine.Vector3","targetTypeName":"UnityEngine.Vector3","$version":"A"},"defaultValues":{"%a":{"x":0.0,"y":0.0,"z":0.0,"$type":"UnityEngine.Vector3"},"%b":{"x":0.0,"y":0.0,"z":0.0,"$type":"UnityEngine.Vector3"}},"position":{"x":1075.0,"y":-300.0},"guid":"4e2b964d-35c5-4ce3-950d-75b0983b889b","$version":"A","$type":"Unity.VisualScripting.InvokeMember","$id":"26"},{"specifyFallback":false,"kind":"Object","defaultValues":{"name":{"$content":"Detection","$type":"System.String"},"object":null},"position":{"x":-970.0,"y":-52.0},"guid":"42a1c5cf-92e2-459f-96a6-3230f756e056","$version":"A","$type":"Unity.VisualScripting.GetVariable","$id":"29"},{"member":{"name":"position","parameterTypes":null,"targetType":"UnityEngine.Transform","targetTypeName":"UnityEngine.Transform","$version":"A"},"defaultValues":{"target":null},"position":{"x":858.0,"y":-318.0},"guid":"c4201473-0cb6-4687-89d0-834c54825529","$version":"A","$type":"Unity.VisualScripting.GetMember","$id":"31"},{"chainable":false,"member":{"name":".ctor","parameterTypes":["System.Single","System.Single","System.Single"],"targetType":"UnityEngine.Vector3","targetTypeName":"UnityEngine.Vector3","$version":"A"},"defaultValues":{"%x":{"$content":0.0,"$type":"System.Single"},"%y":{"$content":0.0,"$type":"System.Single"},"%z":{"$content":0.0,"$type":"System.Single"}},"position":{"x":-173.0,"y":-734.0},"guid":"022b3389-e095-498f-9adc-c0ce388f2a8a","$version":"A","$type":"Unity.VisualScripting.InvokeMember","$id":"34"},{"specifyFallback":false,"kind":"Object","defaultValues":{"name":{"$content":"DistanceForceAdjust","$type":"System.String"},"object":null},"position":{"x":1030.0,"y":-56.0},"guid":"0cd326dc-777e-4232-ace0-5e0e57803b38","$version":"A","$type":"Unity.VisualScripting.GetVariable","$id":"37"},{"specifyFallback":false,"kind":"Object","defaultValues":{"name":{"$content":"Detection","$type":"System.String"},"object":null},"position":{"x":392.0,"y":-296.0},"guid":"cbb4d171-6b90-4df3-a159-2a6c29adef42","$version":"A","$type":"Unity.VisualScripting.GetVariable","$id":"39"},{"specifyFallback":false,"kind":"Object","defaultValues":{"name":{"$content":"LaunchDelay","$type":"System.String"},"object":null},"position":{"x":-84.0,"y":106.0},"guid":"2619d972-18bb-42ee-9a9b-eeec5e654c8c","$version":"A","$type":"Unity.VisualScripting.GetVariable","$id":"41"},{"specifyFallback":false,"kind":"Object","defaultValues":{"name":{"$content":"DistanceForce","$type":"System.String"},"object":null},"position":{"x":469.0,"y":98.0},"guid":"5bcfdca1-1d5c-4769-b072-03edf8f50014","$version":"A","$type":"Unity.VisualScripting.GetVariable","$id":"43"},{"specifyFallback":false,"kind":"Object","defaultValues":{"name":{"$content":"Launcher","$type":"System.String"},"object":null},"position":{"x":1275.0,"y":-234.0},"guid":"463f608e-9b2a-46fb-b8de-b8090c01b3c3","$version":"A","$type":"Unity.VisualScripting.GetVariable","$id":"45"},{"defaultValues":{},"position":{"x":-594.0,"y":-175.0},"guid":"c9be62b1-1ff2-42f0-9ed3-f424fe586d6b","$version":"A","$type":"Unity.VisualScripting.If","$id":"47"},{"defaultValues":{},"position":{"x":-1078.0,"y":-266.0},"guid":"0fd4a746-a1c8-4687-894b-958d0425edf2","$version":"A","$type":"Unity.VisualScripting.If","$id":"49"},{"specifyFallback":false,"kind":"Scene","defaultValues":{"name":{"$content":"count","$type":"System.String"}},"position":{"x":-1416.0,"y":-146.0},"guid":"5552d221-0c11-4353-ae69-f692cea3290b","$version":"A","$type":"Unity.VisualScripting.GetVariable","$id":"51"},{"numeric":true,"defaultValues":{"b":{"$content":4.0,"$type":"System.Single"}},"position":{"x":-1246.0,"y":-160.0},"guid":"0f5ddabf-db26-4088-8c93-b3dccfcbe275","$version":"A","$type":"Unity.VisualScripting.Less","$id":"53"},{"defaultValues":{"duration":{"$content":5.0,"$type":"System.Single"},"unscaledTime":{"$content":false,"$type":"System.Boolean"}},"position":{"x":-874.0,"y":-394.0},"guid":"5f10857e-c7fa-4715-818c-f4f00d75621a","$version":"A","$type":"Unity.VisualScripting.Cooldown","$id":"55"},{"kind":"Object","defaultValues":{"name":{"$content":"LaunchForce","$type":"System.String"},"object":null},"position":{"x":1486.0,"y":-331.0},"guid":"b6e2f1bf-b20e-4c89-8a54-5ff0482f0679","$version":"A","$type":"Unity.VisualScripting.SetVariable","$id":"57"},{"specifyFallback":false,"kind":"Object","defaultValues":{"name":{"$content":"Launcher","$type":"System.String"},"object":null},"position":{"x":170.0,"y":-831.0},"guid":"a8bb3630-4051-435c-a228-7bbd0358a239","$version":"A","$type":"Unity.VisualScripting.GetVariable","$id":"59"},{"specifyFallback":false,"kind":"Object","defaultValues":{"name":{"$content":"DetectedGameObject","$type":"System.String"},"object":null},"position":{"x":587.0,"y":-316.0},"guid":"b953128e-28bb-4b94-8d14-fd55c5813c5b","$version":"A","$type":"Unity.VisualScripting.GetVariable","$id":"61"},{"member":{"name":"z","parameterTypes":null,"targetType":"UnityEngine.Vector3","targetTypeName":"UnityEngine.Vector3","$version":"A"},"defaultValues":{"target":{"x":0.0,"y":0.0,"z":0.0,"$type":"UnityEngine.Vector3"}},"position":{"x":-314.0,"y":-636.0},"guid":"c8c087d8-3922-4dc9-844d-652bd0accb35","$version":"A","$type":"Unity.VisualScripting.GetMember","$id":"63"},{"defaultValues":{},"position":{"x":1296.0,"y":-97.0},"guid":"683e985d-4577-48e0-8e84-1153d20b28e6","$version":"A","$type":"Unity.VisualScripting.GenericMultiply","$id":"66"},{"type":"System.Single","value":{"$content":-1.0,"$type":"System.Single"},"defaultValues":{},"position":{"x":-466.0,"y":-422.0},"guid":"a02819f7-944e-4882-96f7-30a46fa67b91","$version":"A","$type":"Unity.VisualScripting.Literal","$id":"68"},{"defaultValues":{},"position":{"x":-235.0,"y":-510.0},"guid":"36e30b11-0fee-4e9b-8b12-158943448637","$version":"A","$type":"Unity.VisualScripting.GenericMultiply","$id":"70"},{"outputCount":2,"defaultValues":{},"position":{"x":458.0,"y":-149.0},"guid":"09adcfd1-b924-47f0-912b-0f2bb73e03d8","$version":"A","$type":"Unity.VisualScripting.Sequence","$id":"72"},{"member":{"name":"x","parameterTypes":null,"targetType":"UnityEngine.Vector3","targetTypeName":"UnityEngine.Vector3","$version":"A"},"defaultValues":{"target":{"x":0.0,"y":0.0,"z":0.0,"$type":"UnityEngine.Vector3"}},"position":{"x":-317.0,"y":-769.0},"guid":"8bfa9f55-716b-42e8-8da5-b03576e8a50f","$version":"A","$type":"Unity.VisualScripting.GetMember","$id":"74"},{"argumentCount":0,"defaultValues":{"name":{"$content":"Launch","$type":"System.String"},"target":null},"position":{"x":1830.0,"y":24.0},"guid":"68fd2fba-134b-40d0-bcfb-777626fa70cb","$version":"A","$type":"Unity.VisualScripting.TriggerCustomEvent","$id":"77"},{"defaultValues":{"duration":{"$content":1.0,"$type":"System.Single"},"unscaledTime":{"$content":false,"$type":"System.Boolean"}},"position":{"x":182.0,"y":-24.0},"guid":"3cc4865f-ec7f-423e-85ca-ae84f826869f","$version":"A","$type":"Unity.VisualScripting.Timer","$id":"79"},{"specifyFallback":false,"kind":"Object","defaultValues":{"name":{"$content":"Launcher","$type":"System.String"},"object":null},"position":{"x":1519.0,"y":150.0},"guid":"3270afd7-4de7-4795-ab62-8564e9da0134","$version":"A","$type":"Unity.VisualScripting.GetVariable","$id":"81"},{"chainable":false,"member":{"name":"Euler","parameterTypes":["System.Single","System.Single","System.Single"],"targetType":"UnityEngine.Quaternion","targetTypeName":"UnityEngine.Quaternion","$version":"A"},"defaultValues":{"%x":{"$content":0.0,"$type":"System.Single"},"%y":{"$content":0.0,"$type":"System.Single"},"%z":{"$content":0.0,"$type":"System.Single"}},"position":{"x":10.0,"y":-597.0},"guid":"e63ce09e-00cb-4b0a-a831-b8cdf1ca1e66","$version":"A","$type":"Unity.VisualScripting.InvokeMember","$id":"83"},{"specifyFallback":false,"kind":"Object","defaultValues":{"name":{"$content":"Detected","$type":"System.String"},"object":null},"position":{"x":-780.0,"y":-68.0},"guid":"fc7c3955-f42b-4ebc-9dcb-b8156203384c","$version":"A","$type":"Unity.VisualScripting.GetVariable","$id":"86"},{"defaultValues":{},"position":{"x":246.0,"y":-628.0},"guid":"51a8a094-cc4b-4ce9-a388-00f606ba2dae","$version":"A","$type":"Unity.VisualScripting.GenericMultiply","$id":"88"},{"defaultValues":{},"position":{"x":728.0,"y":22.0},"guid":"26abb1bb-0748-4904-a0a3-b622da3490f5","$version":"A","$type":"Unity.VisualScripting.If","$id":"90"},{"specifyFallback":false,"kind":"Object","defaultValues":{"name":{"$content":"Detection","$type":"System.String"},"object":null},"position":{"x":-1173.0,"y":-728.0},"guid":"9d38a706-ee19-418e-bbc7-3bfad7f116eb","$version":"A","$type":"Unity.VisualScripting.GetVariable","$id":"92"},{"member":{"name":"position","parameterTypes":null,"targetType":"UnityEngine.Transform","targetTypeName":"UnityEngine.Transform","$version":"A"},"defaultValues":{"target":null},"position":{"x":-707.0,"y":-751.0},"guid":"660a25af-c031-4b54-adef-13a050ad49ca","$version":"A","$type":"Unity.VisualScripting.GetMember","$id":"94"},{"outputCount":2,"defaultValues":{},"position":{"x":-321.0,"y":-264.0},"guid":"dc98ebc6-43ce-47c4-a6d3-c7a56f4e8c99","$version":"A","$type":"Unity.VisualScripting.Sequence","$id":"97"},{"kind":"Scene","defaultValues":{"name":{"$content":"count","$type":"System.String"}},"position":{"x":2098.0,"y":35.0},"guid":"ddec4ca9-3cb5-4071-bef3-4a67b0ff1d00","$version":"A","$type":"Unity.VisualScripting.SetVariable","$id":"99"},{"inputCount":2,"defaultValues":{},"position":{"x":1945.0,"y":226.0},"guid":"5e67cb65-3508-4589-a31e-c00da3254d1e","$version":"A","$type":"Unity.VisualScripting.GenericSum","$id":"101"},{"specifyFallback":false,"kind":"Scene","defaultValues":{"name":{"$content":"count","$type":"System.String"}},"position":{"x":1777.0,"y":225.0},"guid":"a46b5d8f-c414-4bed-a073-d0cf965d5bb6","$version":"A","$type":"Unity.VisualScripting.GetVariable","$id":"103"},{"type":"System.Single","value":{"$content":1.0,"$type":"System.Single"},"defaultValues":{},"position":{"x":1807.0,"y":329.0},"guid":"d7b20bfa-584d-4587-bb62-69a65344b0af","$version":"A","$type":"Unity.VisualScripting.Literal","$id":"105"},{"defaultValues":{},"position":{"x":-7.0,"y":-50.0},"guid":"df5f3c1b-8920-4203-bd20-5757d46ca770","$version":"A","$type":"Unity.VisualScripting.Once","$id":"107"},{"chainable":false,"member":{"name":"rotation","parameterTypes":null,"targetType":"UnityEngine.Transform","targetTypeName":"UnityEngine.Transform","$version":"A"},"defaultValues":{"target":null},"position":{"x":468.0,"y":-736.0},"guid":"382975f5-196f-4e2b-ac1c-e115b210d5cb","$version":"A","$type":"Unity.VisualScripting.SetMember","$id":"109"},{"sourceUnit":{"$ref":"79"},"sourceKey":"completed","destinationUnit":{"$ref":"72"},"destinationKey":"enter","guid":"974ee6a1-cad9-4ac5-9190-39a6e3362bfd","$type":"Unity.VisualScripting.ControlConnection"},{"sourceUnit":{"$ref":"72"},"sourceKey":"0","destinationUnit":{"$ref":"107"},"destinationKey":"reset","guid":"db50d5aa-ce0c-4196-9d71-bb7b5daea898","$type":"Unity.VisualScripting.ControlConnection"},{"sourceUnit":{"$ref":"107"},"sourceKey":"once","destinationUnit":{"$ref":"79"},"destinationKey":"start","guid":"432fc09f-7283-4f15-ac24-4262514764fa","$type":"Unity.VisualScripting.ControlConnection"},{"sourceUnit":{"$ref":"97"},"sourceKey":"1","destinationUnit":{"$ref":"107"},"destinationKey":"enter","guid":"e6bb9d76-207d-462b-8e68-9b7f6d203faf","$type":"Unity.VisualScripting.ControlConnection"},{"sourceUnit":{"$ref":"97"},"sourceKey":"0","destinationUnit":{"$ref":"109"},"destinationKey":"assign","guid":"ec2b786b-84f4-4906-8698-9c06c8cce068","$type":"Unity.VisualScripting.ControlConnection"},{"sourceUnit":{"$ref":"47"},"sourceKey":"ifTrue","destinationUnit":{"$ref":"97"},"destinationKey":"enter","guid":"22ecb480-3da9-451e-852b-a580f34c628c","$type":"Unity.VisualScripting.ControlConnection"},{"sourceUnit":{"$ref":"72"},"sourceKey":"1","destinationUnit":{"$ref":"90"},"destinationKey":"enter","guid":"77953112-dae7-47fe-9867-ea2046baaea9","$type":"Unity.VisualScripting.ControlConnection"},{"sourceUnit":{"$ref":"90"},"sourceKey":"ifFalse","destinationUnit":{"$ref":"77"},"destinationKey":"enter","guid":"8bce2949-4b07-413a-8832-154f22764aff","$type":"Unity.VisualScripting.ControlConnection"},{"sourceUnit":{"$ref":"90"},"sourceKey":"ifTrue","destinationUnit":{"$ref":"26"},"destinationKey":"enter","guid":"31810172-ba66-4cf6-aa6a-3e041ee1218c","$type":"Unity.VisualScripting.ControlConnection"},{"sourceUnit":{"$ref":"26"},"sourceKey":"exit","destinationUnit":{"$ref":"57"},"destinationKey":"assign","guid":"ee384fc6-558a-4562-bf47-22d5d3455160","$type":"Unity.VisualScripting.ControlConnection"},{"sourceUnit":{"$ref":"77"},"sourceKey":"exit","destinationUnit":{"$ref":"99"},"destinationKey":"assign","guid":"82ce7d1f-33d2-4ad9-a8e8-bc7daa284e6f","$type":"Unity.VisualScripting.ControlConnection"},{"sourceUnit":{"$ref":"9"},"sourceKey":"trigger","destinationUnit":{"$ref":"49"},"destinationKey":"enter","guid":"922b2ce2-686f-4f68-b6d0-44ef94c34dc9","$type":"Unity.VisualScripting.ControlConnection"},{"sourceUnit":{"$ref":"55"},"sourceKey":"becameReady","destinationUnit":{"$ref":"47"},"destinationKey":"enter","guid":"aac5c181-91dd-47f3-97e9-7c7db5461c26","$type":"Unity.VisualScripting.ControlConnection"},{"sourceUnit":{"$ref":"57"},"sourceKey":"assigned","destinationUnit":{"$ref":"77"},"destinationKey":"enter","guid":"b267846b-3a02-4ef1-b42f-a9302fc337db","$type":"Unity.VisualScripting.ControlConnection"},{"sourceUnit":{"$ref":"49"},"sourceKey":"ifFalse","destinationUnit":{"$ref":"47"},"destinationKey":"enter","guid":"1c0c50e4-b3a6-4a5e-b906-96769e26dad9","$type":"Unity.VisualScripting.ControlConnection"},{"sourceUnit":{"$ref":"49"},"sourceKey":"ifTrue","destinationUnit":{"$ref":"55"},"destinationKey":"enter","guid":"744c65b3-9dc5-4f06-8f32-6eca5660237a","$type":"Unity.VisualScripting.ControlConnection"},{"sourceUnit":{"$ref":"11"},"sourceKey":"value","destinationUnit":{"$ref":"94"},"destinationKey":"target","guid":"12d74709-5e44-4d49-bea8-bec05785cd2f","$type":"Unity.VisualScripting.ValueConnection"},{"sourceUnit":{"$ref":"41"},"sourceKey":"value","destinationUnit":{"$ref":"79"},"destinationKey":"duration","guid":"6cf04a88-bc32-4fb9-94a1-223fc9d6c92f","$type":"Unity.VisualScripting.ValueConnection"},{"sourceUnit":{"$ref":"43"},"sourceKey":"value","destinationUnit":{"$ref":"90"},"destinationKey":"condition","guid":"d96310b1-5c7b-4df0-9699-a18575a4119a","$type":"Unity.VisualScripting.ValueConnection"},{"sourceUnit":{"$ref":"74"},"sourceKey":"value","destinationUnit":{"$ref":"34"},"destinationKey":"%x","guid":"812c2253-e681-4c2e-855a-a056fecdbdce","$type":"Unity.VisualScripting.ValueConnection"},{"sourceUnit":{"$ref":"70"},"sourceKey":"product","destinationUnit":{"$ref":"83"},"destinationKey":"%x","guid":"5766d9ab-009d-4566-bc74-31c5c606f063","$type":"Unity.VisualScripting.ValueConnection"},{"sourceUnit":{"$ref":"39"},"sourceKey":"value","destinationUnit":{"$ref":"61"},"destinationKey":"object","guid":"b318f22e-7fea-408f-9650-f7a7f486537b","$type":"Unity.VisualScripting.ValueConnection"},{"sourceUnit":{"$ref":"34"},"sourceKey":"result","destinationUnit":{"$ref":"13"},"destinationKey":"%forward","guid":"5abdd797-9995-4934-82c2-426520836192","$type":"Unity.VisualScripting.ValueConnection"},{"sourceUnit":{"$ref":"31"},"sourceKey":"value","destinationUnit":{"$ref":"26"},"destinationKey":"%a","guid":"902036c4-1b74-45cc-8020-8cf322c1fd3e","$type":"Unity.VisualScripting.ValueConnection"},{"sourceUnit":{"$ref":"45"},"sourceKey":"value","destinationUnit":{"$ref":"57"},"destinationKey":"object","guid":"d5845fdd-2db4-4af6-abfc-86888f643081","$type":"Unity.VisualScripting.ValueConnection"},{"sourceUnit":{"$ref":"23"},"sourceKey":"value","destinationUnit":{"$ref":"26"},"destinationKey":"%b","guid":"b6d6c598-4cf1-4095-ab98-3d5fe5454750","$type":"Unity.VisualScripting.ValueConnection"},{"sourceUnit":{"$ref":"81"},"sourceKey":"value","destinationUnit":{"$ref":"77"},"destinationKey":"target","guid":"842592e5-5a22-4eb8-ad98-dcf9a74f556a","$type":"Unity.VisualScripting.ValueConnection"},{"sourceUnit":{"$ref":"105"},"sourceKey":"output","destinationUnit":{"$ref":"101"},"destinationKey":"1","guid":"6446b608-0744-4dc4-b240-4856a88fc334","$type":"Unity.VisualScripting.ValueConnection"},{"sourceUnit":{"$ref":"103"},"sourceKey":"value","destinationUnit":{"$ref":"101"},"destinationKey":"0","guid":"29f0d94e-f222-41ef-81b5-48fa1f516cab","$type":"Unity.VisualScripting.ValueConnection"},{"sourceUnit":{"$ref":"83"},"sourceKey":"result","destinationUnit":{"$ref":"88"},"destinationKey":"b","guid":"04b098f1-7319-4336-8d5c-8ed32cf5c59e","$type":"Unity.VisualScripting.ValueConnection"},{"sourceUnit":{"$ref":"66"},"sourceKey":"product","destinationUnit":{"$ref":"57"},"destinationKey":"input","guid":"badaff04-07aa-4290-ba88-ccaf55d08386","$type":"Unity.VisualScripting.ValueConnection"},{"sourceUnit":{"$ref":"37"},"sourceKey":"value","destinationUnit":{"$ref":"66"},"destinationKey":"b","guid":"ecfd010b-4a68-432e-a4d9-4724c52283b9","$type":"Unity.VisualScripting.ValueConnection"},{"sourceUnit":{"$ref":"88"},"sourceKey":"product","destinationUnit":{"$ref":"109"},"destinationKey":"input","guid":"7e0ae8f6-d5f7-4b98-8448-621d52680e34","$type":"Unity.VisualScripting.ValueConnection"},{"sourceUnit":{"$ref":"29"},"sourceKey":"value","destinationUnit":{"$ref":"86"},"destinationKey":"object","guid":"a8955a73-118e-4df0-971a-886ca9b65bb1","$type":"Unity.VisualScripting.ValueConnection"},{"sourceUnit":{"$ref":"16"},"sourceKey":"difference","destinationUnit":{"$ref":"63"},"destinationKey":"target","guid":"79122b40-f3d5-4eea-9988-b750323a6a60","$type":"Unity.VisualScripting.ValueConnection"},{"sourceUnit":{"$ref":"94"},"sourceKey":"value","destinationUnit":{"$ref":"16"},"destinationKey":"minuend","guid":"36210dc0-93bf-4c76-8a5e-9c0987b7362c","$type":"Unity.VisualScripting.ValueConnection"},{"sourceUnit":{"$ref":"92"},"sourceKey":"value","destinationUnit":{"$ref":"11"},"destinationKey":"object","guid":"2c9973c7-0b2c-4ae3-a52c-a61371e359bd","$type":"Unity.VisualScripting.ValueConnection"},{"sourceUnit":{"$ref":"101"},"sourceKey":"sum","destinationUnit":{"$ref":"99"},"destinationKey":"input","guid":"83607fcc-833a-4bcc-a099-2e598d99420e","$type":"Unity.VisualScripting.ValueConnection"},{"sourceUnit":{"$ref":"21"},"sourceKey":"value","destinationUnit":{"$ref":"70"},"destinationKey":"a","guid":"40e871b3-ce47-4a26-a6f9-b3a812ad5657","$type":"Unity.VisualScripting.ValueConnection"},{"sourceUnit":{"$ref":"26"},"sourceKey":"result","destinationUnit":{"$ref":"66"},"destinationKey":"a","guid":"8533ff50-fe85-4694-a47e-d94ed4a1b78d","$type":"Unity.VisualScripting.ValueConnection"},{"sourceUnit":{"$ref":"86"},"sourceKey":"value","destinationUnit":{"$ref":"47"},"destinationKey":"condition","guid":"5a471ded-5078-420a-ab3d-373f0a01d193","$type":"Unity.VisualScripting.ValueConnection"},{"sourceUnit":{"$ref":"51"},"sourceKey":"value","destinationUnit":{"$ref":"53"},"destinationKey":"a","guid":"476f708a-429e-4fe2-8165-a8256987d2e6","$type":"Unity.VisualScripting.ValueConnection"},{"sourceUnit":{"$ref":"13"},"sourceKey":"result","destinationUnit":{"$ref":"88"},"destinationKey":"a","guid":"7b66be95-74ec-444e-bf03-4c4d4f368483","$type":"Unity.VisualScripting.ValueConnection"},{"sourceUnit":{"$ref":"16"},"sourceKey":"difference","destinationUnit":{"$ref":"74"},"destinationKey":"target","guid":"7a11a1d5-a427-417b-9f1e-31cb1361b2ce","$type":"Unity.VisualScripting.ValueConnection"},{"sourceUnit":{"$ref":"63"},"sourceKey":"value","destinationUnit":{"$ref":"34"},"destinationKey":"%z","guid":"b6be84fd-2561-4dd4-a7f6-6fd84bdf5d54","$type":"Unity.VisualScripting.ValueConnection"},{"sourceUnit":{"$ref":"18"},"sourceKey":"value","destinationUnit":{"$ref":"16"},"destinationKey":"subtrahend","guid":"d731e056-599d-4518-a5ec-9bf86653a625","$type":"Unity.VisualScripting.ValueConnection"},{"sourceUnit":{"$ref":"59"},"sourceKey":"value","destinationUnit":{"$ref":"109"},"destinationKey":"target","guid":"6f3c5d99-58dd-4cf7-927b-a4e3e08778bd","$type":"Unity.VisualScripting.ValueConnection"},{"sourceUnit":{"$ref":"68"},"sourceKey":"output","destinationUnit":{"$ref":"70"},"destinationKey":"b","guid":"363c41f2-4835-4a20-8b4e-c05066003bf5","$type":"Unity.VisualScripting.ValueConnection"},{"sourceUnit":{"$ref":"61"},"sourceKey":"value","destinationUnit":{"$ref":"31"},"destinationKey":"target","guid":"9c6685af-a4c1-40c9-9f82-fec806d568b2","$type":"Unity.VisualScripting.ValueConnection"},{"sourceUnit":{"$ref":"53"},"sourceKey":"comparison","destinationUnit":{"$ref":"49"},"destinationKey":"condition","guid":"5b9a728d-c33c-406f-9e0d-092c39936c59","$type":"Unity.VisualScripting.ValueConnection"}],"$version":"A"}}'
    _objectReferences: []
