%YAML 1.1
%TAG !u! tag:unity3d.com,2011:
--- !u!114 &11400000
MonoBehaviour:
  m_ObjectHideFlags: 0
  m_CorrespondingSourceObject: {fileID: 0}
  m_PrefabInstance: {fileID: 0}
  m_PrefabAsset: {fileID: 0}
  m_GameObject: {fileID: 0}
  m_Enabled: 1
  m_EditorHideFlags: 0
  m_Script: {fileID: 11500000, guid: 95e66c6366d904e98bc83428217d4fd7, type: 3}
  m_Name: GoletteCrystalController
  m_EditorClassIdentifier: 
  _data:
    _json: '{"graph":{"variables":{"Kind":"Flow","collection":{"$content":[],"$version":"A"},"$version":"A"},"controlInputDefinitions":[],"controlOutputDefinitions":[],"valueInputDefinitions":[],"valueOutputDefinitions":[],"title":null,"summary":null,"pan":{"x":801.214,"y":-282.5445},"zoom":1.0,"elements":[{"defaultValues":{},"position":{"x":609.0,"y":-47.0},"guid":"c149d5a1-95a5-42ef-a002-963d1588f99f","$version":"A","$type":"Unity.VisualScripting.If","$id":"9"},{"coroutine":false,"defaultValues":{"target":null},"position":{"x":-122.0,"y":-57.0},"guid":"bae41bb9-d389-4248-b925-1fd6a754add0","$version":"A","$type":"Unity.VisualScripting.OnTriggerEnter","$id":"11"},{"type":"UnityEngine.GameObject","value":{"$content":0,"$type":"UnityEngine.Object"},"defaultValues":{},"position":{"x":342.0,"y":-602.0},"guid":"8ac5e796-cd6f-468e-8c03-f75603c3071f","$version":"A","$type":"Unity.VisualScripting.Literal","$id":"13"},{"defaultValues":{},"position":{"x":576.0,"y":284.0},"guid":"5cd631f9-d545-4e6f-82f9-9d4d1072e984","$version":"A","$type":"Unity.VisualScripting.This","$id":"15"},{"chainable":false,"member":{"name":"Destroy","parameterTypes":["UnityEngine.Object","System.Single"],"targetType":"UnityEngine.GameObject","targetTypeName":"UnityEngine.GameObject","$version":"A"},"defaultValues":{"%obj":null,"%t":{"$content":0.1,"$type":"System.Single"}},"position":{"x":1537.0,"y":-372.0},"guid":"e700b128-80f6-4fb2-89fe-999c0d98adf0","$version":"A","$type":"Unity.VisualScripting.InvokeMember","$id":"17"},{"chainable":false,"member":{"name":"Destroy","parameterTypes":["UnityEngine.Object","System.Single"],"targetType":"UnityEngine.GameObject","targetTypeName":"UnityEngine.GameObject","$version":"A"},"defaultValues":{"%obj":null,"%t":{"$content":2.0,"$type":"System.Single"}},"position":{"x":1201.0,"y":-426.0},"guid":"1150f860-9978-439a-b48a-54c1d5620f45","$version":"A","$type":"Unity.VisualScripting.InvokeMember","$id":"20"},{"type":"System.Single","value":{"$content":10.0,"$type":"System.Single"},"defaultValues":{},"position":{"x":250.0,"y":262.0},"guid":"920893a9-e18a-421a-a0c4-0a1e806e8053","$version":"A","$type":"Unity.VisualScripting.Literal","$id":"23"},{"type":"UnityEngine.GameObject","value":{"$content":1,"$type":"UnityEngine.Object"},"defaultValues":{},"position":{"x":702.0,"y":-530.0},"guid":"beec48b8-a21c-42bf-9a89-6aac72bccc0a","$version":"A","$type":"Unity.VisualScripting.Literal","$id":"25"},{"chainable":false,"member":{"name":"Destroy","parameterTypes":["UnityEngine.Object","System.Single"],"targetType":"UnityEngine.GameObject","targetTypeName":"UnityEngine.GameObject","$version":"A"},"defaultValues":{"%obj":null,"%t":{"$content":0.8,"$type":"System.Single"}},"position":{"x":1096.0,"y":14.0},"guid":"bf9da63f-9d3e-4395-ab1b-2e2e039e7258","$version":"A","$type":"Unity.VisualScripting.InvokeMember","$id":"27"},{"defaultValues":{"minuend":{"x":0.0,"y":0.0,"z":0.0,"$type":"UnityEngine.Vector3"},"subtrahend":{"x":0.0,"y":3.0,"z":0.0,"$type":"UnityEngine.Vector3"}},"position":{"x":532.0,"y":-419.0},"guid":"4d961cfc-2df8-4f13-9b7a-e22b759b43ae","$version":"A","$type":"Unity.VisualScripting.Vector3Subtract","$id":"30"},{"member":{"name":"rotation","parameterTypes":null,"targetType":"UnityEngine.Transform","targetTypeName":"UnityEngine.Transform","$version":"A"},"defaultValues":{"target":null},"position":{"x":776.0,"y":344.0},"guid":"88fd6626-722b-4572-a98b-46a71b33771b","$version":"A","$type":"Unity.VisualScripting.GetMember","$id":"32"},{"member":{"name":"position","parameterTypes":null,"targetType":"UnityEngine.Transform","targetTypeName":"UnityEngine.Transform","$version":"A"},"defaultValues":{"target":null},"position":{"x":773.0,"y":240.0},"guid":"6c640ad8-0b8e-4149-9a3b-d19810a022be","$version":"A","$type":"Unity.VisualScripting.GetMember","$id":"35"},{"chainable":false,"member":{"name":"Instantiate","parameterTypes":["UnityEngine.Object","UnityEngine.Vector3","UnityEngine.Quaternion"],"targetType":"UnityEngine.Component","targetTypeName":"UnityEngine.Component","$version":"A"},"defaultValues":{"%original":null,"%position":{"x":0.0,"y":0.0,"z":0.0,"$type":"UnityEngine.Vector3"}},"position":{"x":934.0,"y":-344.0},"guid":"c24f84d4-0cf3-4f51-bc95-65e3d0e0b5d4","$version":"A","$type":"Unity.VisualScripting.InvokeMember","$id":"38"},{"numeric":false,"defaultValues":{},"position":{"x":424.0,"y":107.0},"guid":"ce8e478b-6507-478a-8d62-1196634741e6","$version":"A","$type":"Unity.VisualScripting.Equal","$id":"41"},{"inputCount":2,"defaultValues":{"1":{"x":0.0,"y":0.3,"z":0.0,"$type":"UnityEngine.Vector3"}},"position":{"x":954.0,"y":193.0},"guid":"b9ee8c4c-ebfe-44f4-bf73-76705556d721","$version":"A","$type":"Unity.VisualScripting.Vector3Sum","$id":"43"},{"member":{"name":"layer","parameterTypes":null,"targetType":"UnityEngine.GameObject","targetTypeName":"UnityEngine.GameObject","$version":"A"},"defaultValues":{"target":null},"position":{"x":190.0,"y":126.0},"guid":"2e2881f3-5c83-4c41-b1de-f0fae4a80659","$version":"A","$type":"Unity.VisualScripting.GetMember","$id":"45"},{"specifyFallback":false,"kind":"Object","defaultValues":{"name":{"$content":"Parent","$type":"System.String"},"object":null},"position":{"x":1379.0,"y":-210.0},"guid":"2afe6636-6198-4dcf-849c-5f73a515bbb2","$version":"A","$type":"Unity.VisualScripting.GetVariable","$id":"48"},{"inputCount":2,"defaultValues":{"1":{"x":0.0,"y":0.3,"z":0.0,"$type":"UnityEngine.Vector3"}},"position":{"x":536.0,"y":-273.0},"guid":"698bdadf-d321-4ec9-af8e-ba11690eeb07","$version":"A","$type":"Unity.VisualScripting.Vector3Sum","$id":"50"},{"chainable":false,"member":{"name":"Instantiate","parameterTypes":["UnityEngine.Object","UnityEngine.Vector3","UnityEngine.Quaternion"],"targetType":"UnityEngine.Component","targetTypeName":"UnityEngine.Component","$version":"A"},"defaultValues":{"%original":null,"%position":{"x":0.0,"y":0.0,"z":0.0,"$type":"UnityEngine.Vector3"}},"position":{"x":734.0,"y":-199.0},"guid":"67f68c19-c147-4b22-921a-11a5ce124a7d","$version":"A","$type":"Unity.VisualScripting.InvokeMember","$id":"52"},{"chainable":false,"member":{"name":"Instantiate","parameterTypes":["UnityEngine.Object","UnityEngine.Vector3","UnityEngine.Quaternion"],"targetType":"UnityEngine.Component","targetTypeName":"UnityEngine.Component","$version":"A"},"defaultValues":{"%original":null,"%position":{"x":0.0,"y":0.0,"z":0.0,"$type":"UnityEngine.Vector3"}},"position":{"x":881.0,"y":28.0},"guid":"eb7a25f3-2ada-4fd5-8bce-f23dcbab0e97","$version":"A","$type":"Unity.VisualScripting.InvokeMember","$id":"55"},{"defaultValues":{},"position":{"x":203.0,"y":-393.0},"guid":"fc7f7742-ed90-4a2b-b5c4-c26474c8ee06","$version":"A","$type":"Unity.VisualScripting.This","$id":"58"},{"member":{"name":"position","parameterTypes":null,"targetType":"UnityEngine.Transform","targetTypeName":"UnityEngine.Transform","$version":"A"},"defaultValues":{"target":null},"position":{"x":348.0,"y":-323.0},"guid":"4ab6a87f-4251-4421-ac47-47952c1d610c","$version":"A","$type":"Unity.VisualScripting.GetMember","$id":"60"},{"type":"UnityEngine.GameObject","value":{"$content":2,"$type":"UnityEngine.Object"},"defaultValues":{},"position":{"x":654.0,"y":116.0},"guid":"6ed61b5f-3716-46ce-8655-18435564a1dc","$version":"A","$type":"Unity.VisualScripting.Literal","$id":"63"},{"member":{"name":"rotation","parameterTypes":null,"targetType":"UnityEngine.Transform","targetTypeName":"UnityEngine.Transform","$version":"A"},"defaultValues":{"target":null},"position":{"x":337.0,"y":-177.0},"guid":"7390cc59-dc85-444f-ad9d-5caf89b53771","$version":"A","$type":"Unity.VisualScripting.GetMember","$id":"65"},{"chainable":false,"member":{"name":"Destroy","parameterTypes":["UnityEngine.Object","System.Single"],"targetType":"UnityEngine.GameObject","targetTypeName":"UnityEngine.GameObject","$version":"A"},"defaultValues":{"%obj":null,"%t":{"$content":2.0,"$type":"System.Single"}},"position":{"x":1009.0,"y":-495.0},"guid":"d82401f0-9ba8-4bd5-9888-dda23769d646","$version":"A","$type":"Unity.VisualScripting.InvokeMember","$id":"68"},{"sourceUnit":{"$ref":"38"},"sourceKey":"exit","destinationUnit":{"$ref":"68"},"destinationKey":"enter","guid":"c4f1d0f2-f459-4eda-b4f5-eadce6ef50d6","$type":"Unity.VisualScripting.ControlConnection"},{"sourceUnit":{"$ref":"9"},"sourceKey":"ifFalse","destinationUnit":{"$ref":"55"},"destinationKey":"enter","guid":"d775a082-a1d6-46f7-8110-dc4b88123d6d","$type":"Unity.VisualScripting.ControlConnection"},{"sourceUnit":{"$ref":"11"},"sourceKey":"trigger","destinationUnit":{"$ref":"9"},"destinationKey":"enter","guid":"91c4582b-d731-445a-8440-72f6a4cd0cd6","$type":"Unity.VisualScripting.ControlConnection"},{"sourceUnit":{"$ref":"9"},"sourceKey":"ifTrue","destinationUnit":{"$ref":"52"},"destinationKey":"enter","guid":"31d215a1-66ce-4f6f-86ea-d275bcf9324a","$type":"Unity.VisualScripting.ControlConnection"},{"sourceUnit":{"$ref":"55"},"sourceKey":"exit","destinationUnit":{"$ref":"27"},"destinationKey":"enter","guid":"f55e1ff2-cf06-431e-9f50-219bdc49b9dd","$type":"Unity.VisualScripting.ControlConnection"},{"sourceUnit":{"$ref":"52"},"sourceKey":"exit","destinationUnit":{"$ref":"38"},"destinationKey":"enter","guid":"9b36b234-1481-498e-b613-bb1ddcb0a802","$type":"Unity.VisualScripting.ControlConnection"},{"sourceUnit":{"$ref":"20"},"sourceKey":"exit","destinationUnit":{"$ref":"17"},"destinationKey":"enter","guid":"a30612e1-6bfe-4af5-b517-e4d9fae86022","$type":"Unity.VisualScripting.ControlConnection"},{"sourceUnit":{"$ref":"68"},"sourceKey":"exit","destinationUnit":{"$ref":"20"},"destinationKey":"enter","guid":"34acc073-77a5-46c7-89a2-b976ebc9027d","$type":"Unity.VisualScripting.ControlConnection"},{"sourceUnit":{"$ref":"11"},"sourceKey":"collider","destinationUnit":{"$ref":"45"},"destinationKey":"target","guid":"0bfdbb8e-3981-41f3-b7b6-67581aa19644","$type":"Unity.VisualScripting.ValueConnection"},{"sourceUnit":{"$ref":"41"},"sourceKey":"equal","destinationUnit":{"$ref":"9"},"destinationKey":"condition","guid":"22fcfef8-9df4-48d8-a2dc-4868d199a076","$type":"Unity.VisualScripting.ValueConnection"},{"sourceUnit":{"$ref":"30"},"sourceKey":"difference","destinationUnit":{"$ref":"38"},"destinationKey":"%position","guid":"77c000d9-b258-4f91-b20e-1ba90954d4db","$type":"Unity.VisualScripting.ValueConnection"},{"sourceUnit":{"$ref":"45"},"sourceKey":"value","destinationUnit":{"$ref":"41"},"destinationKey":"a","guid":"0936afa3-12dc-4b18-a272-9395e14670a4","$type":"Unity.VisualScripting.ValueConnection"},{"sourceUnit":{"$ref":"23"},"sourceKey":"output","destinationUnit":{"$ref":"41"},"destinationKey":"b","guid":"22c47e56-bb6d-4293-b6e5-99d904171554","$type":"Unity.VisualScripting.ValueConnection"},{"sourceUnit":{"$ref":"63"},"sourceKey":"output","destinationUnit":{"$ref":"55"},"destinationKey":"%original","guid":"a37fac0a-c963-4304-a877-06c140adde90","$type":"Unity.VisualScripting.ValueConnection"},{"sourceUnit":{"$ref":"50"},"sourceKey":"sum","destinationUnit":{"$ref":"52"},"destinationKey":"%position","guid":"2ae43cd1-b6c5-4dad-9fe9-d3fae1c2f75f","$type":"Unity.VisualScripting.ValueConnection"},{"sourceUnit":{"$ref":"60"},"sourceKey":"value","destinationUnit":{"$ref":"50"},"destinationKey":"0","guid":"b04540b7-9442-4ef7-8c9f-b67cf84c729e","$type":"Unity.VisualScripting.ValueConnection"},{"sourceUnit":{"$ref":"32"},"sourceKey":"value","destinationUnit":{"$ref":"55"},"destinationKey":"%rotation","guid":"5f409013-71e7-4ec0-bea3-5a7b130c849f","$type":"Unity.VisualScripting.ValueConnection"},{"sourceUnit":{"$ref":"58"},"sourceKey":"self","destinationUnit":{"$ref":"60"},"destinationKey":"target","guid":"f244ad63-ac4b-41e2-be48-fb6cabdc7eb0","$type":"Unity.VisualScripting.ValueConnection"},{"sourceUnit":{"$ref":"48"},"sourceKey":"value","destinationUnit":{"$ref":"17"},"destinationKey":"%obj","guid":"979da360-a5d3-4636-a468-92d8b8c2c1cf","$type":"Unity.VisualScripting.ValueConnection"},{"sourceUnit":{"$ref":"15"},"sourceKey":"self","destinationUnit":{"$ref":"35"},"destinationKey":"target","guid":"a1f29544-b76f-445b-9444-e5e77462e1e8","$type":"Unity.VisualScripting.ValueConnection"},{"sourceUnit":{"$ref":"55"},"sourceKey":"result","destinationUnit":{"$ref":"27"},"destinationKey":"%obj","guid":"6be5ba37-9171-40be-b6d0-1be890222cfa","$type":"Unity.VisualScripting.ValueConnection"},{"sourceUnit":{"$ref":"52"},"sourceKey":"result","destinationUnit":{"$ref":"68"},"destinationKey":"%obj","guid":"cb952e0e-48d4-4998-9cdf-2540b2ebd666","$type":"Unity.VisualScripting.ValueConnection"},{"sourceUnit":{"$ref":"65"},"sourceKey":"value","destinationUnit":{"$ref":"38"},"destinationKey":"%rotation","guid":"0a9a6227-aa98-45d0-9992-380e1f0842af","$type":"Unity.VisualScripting.ValueConnection"},{"sourceUnit":{"$ref":"43"},"sourceKey":"sum","destinationUnit":{"$ref":"55"},"destinationKey":"%position","guid":"4f379222-6aae-4b28-8525-442868c59ec3","$type":"Unity.VisualScripting.ValueConnection"},{"sourceUnit":{"$ref":"58"},"sourceKey":"self","destinationUnit":{"$ref":"65"},"destinationKey":"target","guid":"baa06a78-7241-4c35-bf39-405a787650a0","$type":"Unity.VisualScripting.ValueConnection"},{"sourceUnit":{"$ref":"35"},"sourceKey":"value","destinationUnit":{"$ref":"43"},"destinationKey":"0","guid":"b7ae8d60-0e0e-410d-9732-ca85464205d6","$type":"Unity.VisualScripting.ValueConnection"},{"sourceUnit":{"$ref":"25"},"sourceKey":"output","destinationUnit":{"$ref":"38"},"destinationKey":"%original","guid":"0feed9e9-9a30-4404-a24e-4f8d8a789a18","$type":"Unity.VisualScripting.ValueConnection"},{"sourceUnit":{"$ref":"38"},"sourceKey":"result","destinationUnit":{"$ref":"20"},"destinationKey":"%obj","guid":"83ddf6ab-6fc3-4950-9892-4f5adeced049","$type":"Unity.VisualScripting.ValueConnection"},{"sourceUnit":{"$ref":"13"},"sourceKey":"output","destinationUnit":{"$ref":"52"},"destinationKey":"%original","guid":"f9b2141d-936c-43eb-965e-9d0ad469c688","$type":"Unity.VisualScripting.ValueConnection"},{"sourceUnit":{"$ref":"65"},"sourceKey":"value","destinationUnit":{"$ref":"52"},"destinationKey":"%rotation","guid":"1d7a22a6-653f-448a-a577-abbf9868006f","$type":"Unity.VisualScripting.ValueConnection"},{"sourceUnit":{"$ref":"15"},"sourceKey":"self","destinationUnit":{"$ref":"32"},"destinationKey":"target","guid":"17de32a5-9f05-46d1-8d1d-af22b812937b","$type":"Unity.VisualScripting.ValueConnection"},{"sourceUnit":{"$ref":"60"},"sourceKey":"value","destinationUnit":{"$ref":"30"},"destinationKey":"minuend","guid":"887c6fbf-d17e-45f1-a8f9-69528c470780","$type":"Unity.VisualScripting.ValueConnection"}],"$version":"A"}}'
    _objectReferences:
    - {fileID: 6164249774525125638, guid: 9e7fffd5646df014aa079336b8adebdf, type: 3}
    - {fileID: 2107374960101989638, guid: 4864666247a262143b2641b085caa043, type: 3}
    - {fileID: 3551154214633784458, guid: 95d7a00e48ac62245a48c8459d09270a, type: 3}
