%YAML 1.1
%TAG !u! tag:unity3d.com,2011:
--- !u!114 &11400000
MonoBehaviour:
  m_ObjectHideFlags: 0
  m_CorrespondingSourceObject: {fileID: 0}
  m_PrefabInstance: {fileID: 0}
  m_PrefabAsset: {fileID: 0}
  m_GameObject: {fileID: 0}
  m_Enabled: 1
  m_EditorHideFlags: 0
  m_Script: {fileID: 11500000, guid: 95e66c6366d904e98bc83428217d4fd7, type: 3}
  m_Name: QuitButton
  m_EditorClassIdentifier: 
  _data:
    _json: '{"graph":{"variables":{"Kind":"Flow","collection":{"$content":[],"$version":"A"},"$version":"A"},"controlInputDefinitions":[],"controlOutputDefinitions":[],"valueInputDefinitions":[],"valueOutputDefinitions":[],"title":null,"summary":null,"pan":{"x":292.0,"y":203.0},"zoom":1.0,"elements":[{"coroutine":false,"defaultValues":{"target":null},"position":{"x":-176.0,"y":64.0},"guid":"2619a506-8904-4457-852e-08242cb2464d","$version":"A","$type":"Unity.VisualScripting.OnButtonClick","$id":"9"},{"chainable":false,"member":{"name":"Quit","parameterTypes":[],"targetType":"UnityEngine.Application","targetTypeName":"UnityEngine.Application","$version":"A"},"defaultValues":{},"position":{"x":81.0,"y":159.0},"guid":"a6d4d2b8-c13d-439b-9578-b460c04cd1bb","$version":"A","$type":"Unity.VisualScripting.InvokeMember","$id":"11"},{"sourceUnit":{"$ref":"9"},"sourceKey":"trigger","destinationUnit":{"$ref":"11"},"destinationKey":"enter","guid":"bc0734b5-6a24-4654-a461-254304caa5d8","$type":"Unity.VisualScripting.ControlConnection"}],"$version":"A"}}'
    _objectReferences: []
