%YAML 1.1
%TAG !u! tag:unity3d.com,2011:
--- !u!1 &6164249774525125638
GameObject:
  m_ObjectHideFlags: 0
  m_CorrespondingSourceObject: {fileID: 0}
  m_PrefabInstance: {fileID: 0}
  m_PrefabAsset: {fileID: 0}
  serializedVersion: 6
  m_Component:
  - component: {fileID: 6164249774525125633}
  - component: {fileID: 6164249774525125632}
  - component: {fileID: 6164249774525125639}
  m_Layer: 0
  m_Name: GoletteBall
  m_TagString: Untagged
  m_Icon: {fileID: 0}
  m_NavMeshLayer: 0
  m_StaticEditorFlags: 0
  m_IsActive: 1
--- !u!4 &6164249774525125633
Transform:
  m_ObjectHideFlags: 0
  m_CorrespondingSourceObject: {fileID: 0}
  m_PrefabInstance: {fileID: 0}
  m_PrefabAsset: {fileID: 0}
  m_GameObject: {fileID: 6164249774525125638}
  m_LocalRotation: {x: 0, y: 0, z: 0, w: 1}
  m_LocalPosition: {x: 0, y: 0, z: 0}
  m_LocalScale: {x: 1, y: 1, z: 1}
  m_ConstrainProportionsScale: 0
  m_Children: []
  m_Father: {fileID: 0}
  m_RootOrder: 0
  m_LocalEulerAnglesHint: {x: 0, y: 0, z: 0}
--- !u!2083052967 &6164249774525125632
VisualEffect:
  m_ObjectHideFlags: 0
  m_CorrespondingSourceObject: {fileID: 0}
  m_PrefabInstance: {fileID: 0}
  m_PrefabAsset: {fileID: 0}
  m_GameObject: {fileID: 6164249774525125638}
  m_Enabled: 1
  m_Asset: {fileID: 8926484042661614526, guid: cd62cec9a7aed1349b86818dfde5a600, type: 3}
  m_InitialEventName: OnPlay
  m_InitialEventNameOverriden: 0
  m_StartSeed: 0
  m_ResetSeedOnPlay: 1
  m_ResourceVersion: 1
  m_PropertySheet:
    m_Float:
      m_Array: []
    m_Vector2f:
      m_Array: []
    m_Vector3f:
      m_Array:
      - m_Value: {x: 0, y: 0, z: 0}
        m_Name: New Vector3
        m_Overridden: 1
    m_Vector4f:
      m_Array:
      - m_Value: {x: 0.68668544, y: 0.5028866, z: 0.42326775, w: 1}
        m_Name: Inner Sphere Color0
        m_Overridden: 1
      - m_Value: {x: 0.76052475, y: 0.5149178, z: 0.35640025, w: 1}
        m_Name: Inner Sphere Color1
        m_Overridden: 1
      - m_Value: {x: 0.65837497, y: 0.44520125, z: 0.33245158, w: 1}
        m_Name: Outer Sphere Color
        m_Overridden: 1
      - m_Value: {x: 0.76052475, y: 0.5149178, z: 0.35640025, w: 1}
        m_Name: Drop Color1
        m_Overridden: 1
      - m_Value: {x: 0.68668544, y: 0.5028866, z: 0.42326775, w: 1}
        m_Name: Drop Color0
        m_Overridden: 1
      - m_Value: {x: 0.76052475, y: 0.5149178, z: 0.35640025, w: 1}
        m_Name: Explosion Color1
        m_Overridden: 1
      - m_Value: {x: 0.6886792, y: 0.5029422, z: 0.4255518, w: 0}
        m_Name: Explosion Color0
        m_Overridden: 1
    m_Uint:
      m_Array: []
    m_Int:
      m_Array: []
    m_Matrix4x4f:
      m_Array: []
    m_AnimationCurve:
      m_Array: []
    m_Gradient:
      m_Array: []
    m_NamedObject:
      m_Array: []
    m_Bool:
      m_Array: []
--- !u!73398921 &6164249774525125639
VFXRenderer:
  serializedVersion: 1
  m_ObjectHideFlags: 0
  m_CorrespondingSourceObject: {fileID: 0}
  m_PrefabInstance: {fileID: 0}
  m_PrefabAsset: {fileID: 0}
  m_GameObject: {fileID: 6164249774525125638}
  m_Enabled: 1
  m_CastShadows: 0
  m_ReceiveShadows: 0
  m_DynamicOccludee: 1
  m_StaticShadowCaster: 0
  m_MotionVectors: 0
  m_LightProbeUsage: 0
  m_ReflectionProbeUsage: 0
  m_RayTracingMode: 0
  m_RayTraceProcedural: 0
  m_RenderingLayerMask: 1
  m_RendererPriority: 0
  m_StaticBatchInfo:
    firstSubMesh: 0
    subMeshCount: 0
  m_StaticBatchRoot: {fileID: 0}
  m_ProbeAnchor: {fileID: 0}
  m_LightProbeVolumeOverride: {fileID: 0}
  m_ScaleInLightmap: 1
  m_ReceiveGI: 1
  m_PreserveUVs: 0
  m_IgnoreNormalsForChartDetection: 0
  m_ImportantGI: 0
  m_StitchLightmapSeams: 1
  m_SelectedEditorRenderState: 3
  m_MinimumChartSize: 4
  m_AutoUVMaxDistance: 0.5
  m_AutoUVMaxAngle: 89
  m_LightmapParameters: {fileID: 0}
  m_SortingLayerID: 0
  m_SortingLayer: 0
  m_SortingOrder: 0
